<?xml version="1.0" encoding="UTF-8" standalone="no"?>
<svg
   width="104"
   height="26"
   version="1.1"
   id="svg10"
   sodipodi:docname="page-logo.svg"
   inkscape:version="1.3.2 (091e20ef0f, 2023-11-25)"
   xmlns:inkscape="http://www.inkscape.org/namespaces/inkscape"
   xmlns:sodipodi="http://sodipodi.sourceforge.net/DTD/sodipodi-0.dtd"
   xmlns="http://www.w3.org/2000/svg"
   xmlns:svg="http://www.w3.org/2000/svg">
  <defs
     id="defs14">
    <filter
       id="alpha-to-white"
       x="0"
       y="0"
       width="1"
       height="1">
      <feColorMatrix
         in="SourceGraphic"
         type="matrix"
         values="0 0 0 1 0                              0 0 0 1 0                              0 0 0 1 0                              0 0 0 1 0"
         id="feColorMatrix49240" />
    </filter>
    <linearGradient
       id="Gradient"
       x1="1494.489"
       x2="1494.489"
       y1="-893.76349"
       y2="-833.07812"
       gradientUnits="userSpaceOnUse"
       gradientTransform="matrix(0.75875728,0,0,0.75875728,-919.83003,867.54284)">
      <stop
         offset="0%"
         style="stop-color:#E01B24;stop-opacity:1"
         id="stop49235" />
      <stop
         offset="100%"
         style="stop-color:#C061CB;stop-opacity:1"
         id="stop49237" />
    </linearGradient>
  </defs>
  <sodipodi:namedview
     id="namedview12"
     pagecolor="#505050"
     bordercolor="#ffffff"
     borderopacity="1"
     inkscape:pageshadow="0"
     inkscape:pageopacity="0"
     inkscape:pagecheckerboard="1"
     showgrid="true"
     width="137px"
     inkscape:current-layer="g50672"
     showguides="true"
     inkscape:guide-bbox="true"
     inkscape:showpageshadow="0"
     inkscape:deskcolor="#505050"
     inkscape:zoom="2.8125"
     inkscape:cx="55.466667"
     inkscape:cy="-22.044444"
     inkscape:window-width="1549"
     inkscape:window-height="1216"
     inkscape:window-x="26"
     inkscape:window-y="23"
     inkscape:window-maximized="0">
    <inkscape:grid
       type="xygrid"
       id="grid5602"
       originx="0"
       originy="0"
       spacingy="1"
       spacingx="1"
       units="px"
       visible="true" />
    <sodipodi:guide
       position="60,11"
       orientation="0,-1"
       id="guide140"
       inkscape:locked="false" />
  </sodipodi:namedview>
  <g
     id="g50672"
     transform="matrix(0.45217319,0,0,0.45217319,-85.008959,-81.671026)"
     style="fill:#241f31;stroke-width:2.21154">
    <path
       d="m 254.24827,199.05734 v -7.34764 h 26.38471 v 7.34764 h -8.85057 v 23.75458 h -8.68357 v -23.75458 z m 36.2581,24.31818 q -3.27722,0 -5.78209,-0.96021 -2.48401,-0.98107 -3.96606,-2.73449 -1.46118,-1.75341 -1.69079,-4.07042 h 8.22435 q 0.14611,0.98108 0.93933,1.60729 0.81408,0.60535 2.15002,0.60535 1.23156,0 1.89953,-0.37573 0.68884,-0.39661 0.68884,-1.0437 0,-0.54272 -0.60535,-0.89758 -0.60534,-0.35486 -1.85778,-0.5636 l -4.13305,-0.66797 q -3.31896,-0.54272 -5.07237,-2.21264 -1.73254,-1.66991 -1.73254,-4.34178 0,-2.27527 1.23156,-3.92431 1.25244,-1.66992 3.59032,-2.5675 2.35876,-0.89758 5.65685,-0.89758 3.33984,0 5.71947,0.9602 2.40051,0.93933 3.71557,2.67187 1.31506,1.73254 1.37768,4.13305 h -7.59813 q -0.0209,-0.96021 -0.85583,-1.6073 -0.81408,-0.64709 -2.02477,-0.64709 -1.2107,0 -1.85779,0.41748 -0.64709,0.3966 -0.64709,1.00195 0,0.52185 0.52185,0.89758 0.54272,0.35486 1.5238,0.52185 l 4.71752,0.79321 q 3.48595,0.58447 5.13499,2.04565 1.66992,1.4403 1.66992,3.92431 0,2.33788 -1.35681,4.13304 -1.3568,1.77429 -3.81993,2.79712 -2.46313,1.00195 -5.76122,1.00195 z m 13.48459,8.16172 V 200.769 h 8.26609 v 2.75537 h 0.10437 q 0.64709,-1.08545 1.5238,-1.79516 0.89758,-0.73059 2.04565,-1.08545 1.16894,-0.37573 2.58837,-0.37573 2.77624,0 4.88451,1.46118 2.12915,1.46117 3.33984,4.04955 1.21069,2.58837 1.21069,5.96995 0,3.50683 -1.18982,6.11608 -1.16894,2.58837 -3.29809,4.02868 -2.12914,1.41943 -5.03062,1.41943 -1.46118,0 -2.63013,-0.43836 -1.16894,-0.43835 -2.02477,-1.27331 -0.85583,-0.83496 -1.35681,-2.04565 h -0.0835 v 11.98166 z m 11.96078,-14.77877 q 1.14807,0 1.94128,-0.60535 0.79321,-0.62622 1.21069,-1.75341 0.41748,-1.1272 0.41748,-2.651 0,-1.5238 -0.41748,-2.63012 -0.41748,-1.10632 -1.21069,-1.71166 -0.79321,-0.62622 -1.94128,-0.62622 -1.12719,0 -2.02477,0.62622 -0.87671,0.60534 -1.37769,1.71166 -0.50097,1.10632 -0.50097,2.63012 0,1.5238 0.50097,2.651 0.50098,1.12719 1.37769,1.75341 0.89758,0.60535 2.02477,0.60535 z m 21.93855,6.45006 q -2.21264,0 -3.90343,-0.70972 -1.69079,-0.70971 -2.651,-2.15002 -0.9602,-1.4403 -0.9602,-3.63207 0,-1.85778 0.64709,-3.1311 0.6471,-1.29418 1.79517,-2.10827 1.16894,-0.83496 2.71361,-1.25244 1.54468,-0.43835 3.31897,-0.56359 1.94127,-0.12525 3.11022,-0.33399 1.18981,-0.22961 1.71166,-0.60534 0.52185,-0.37573 0.52185,-0.98108 v -0.0835 q 0,-0.4801 -0.31311,-0.83495 -0.31311,-0.35486 -0.8767,-0.54273 -0.54273,-0.20874 -1.31506,-0.20874 -0.81409,0 -1.41943,0.22962 -0.58448,0.22961 -0.91846,0.68884 -0.33398,0.43835 -0.41748,1.08544 h -7.63987 q 0.18786,-2.50487 1.4403,-4.23741 1.25244,-1.75342 3.56945,-2.651 2.33789,-0.91845 5.71947,-0.91845 2.54662,0 4.4879,0.52185 1.96216,0.50097 3.27722,1.50292 1.33593,1.00195 2.0039,2.46313 0.66797,1.44031 0.66797,3.31896 v 14.73703 h -8.14085 v -3.08935 h -0.0835 q -0.73059,1.31506 -1.66992,2.0874 -0.93933,0.75146 -2.10827,1.06457 -1.14807,0.33399 -2.5675,0.33399 z m 2.71362,-5.19762 q 0.89758,0 1.73254,-0.33399 0.85583,-0.35486 1.39856,-1.02282 0.54272,-0.66797 0.54272,-1.64905 v -1.75341 q -0.31311,0.10437 -0.66797,0.20874 -0.33398,0.10437 -0.73059,0.20874 -0.3966,0.0835 -0.8767,0.18786 -0.48011,0.0835 -1.06458,0.18787 -0.85583,0.14612 -1.48205,0.43835 -0.60534,0.29224 -0.93933,0.73059 -0.33398,0.43836 -0.33398,1.00195 0,0.5636 0.31311,0.98108 0.31311,0.39661 0.85583,0.60535 0.54272,0.20874 1.25244,0.20874 z m 15.44675,4.80101 V 200.769 h 8.0991 v 4.00781 h 0.0417 q 0.60534,-2.23352 1.87865,-3.11023 1.27332,-0.89758 3.54858,-0.89758 0.60534,0 1.08545,0 0.50097,0 1.00195,0 v 6.67967 q -0.43836,0 -1.35681,0 -0.89758,0 -1.69079,0 -1.29419,0 -2.25439,0.58448 -0.96021,0.58447 -1.48206,1.66991 -0.52184,1.06458 -0.52184,2.54663 v 10.56223 z m 40.91298,8.72532 h -8.34959 v -11.98166 h -0.0835 q -0.50098,1.21069 -1.35681,2.04565 -0.85584,0.83496 -2.02478,1.27331 -1.16894,0.43836 -2.63012,0.43836 -2.88061,0 -5.03063,-1.41943 -2.12914,-1.44031 -3.31896,-4.02868 -1.16894,-2.60925 -1.16894,-6.11608 0,-3.38158 1.21069,-5.96995 1.21069,-2.58838 3.33983,-4.04955 2.12915,-1.46118 4.88451,-1.46118 1.44031,0 2.58838,0.37573 1.14807,0.35486 2.02477,1.08545 0.89758,0.70971 1.54468,1.79516 h 0.10437 V 200.769 h 8.26609 z m -11.96079,-14.77877 q 1.14807,0 2.02478,-0.60535 0.87671,-0.62622 1.37768,-1.75341 0.50098,-1.1272 0.50098,-2.651 0,-1.5238 -0.50098,-2.63012 -0.50097,-1.10632 -1.37768,-1.71166 -0.87671,-0.62622 -2.02478,-0.62622 -1.12719,0 -1.94128,0.62622 -0.79321,0.60534 -1.21069,1.71166 -0.41748,1.10632 -0.41748,2.63012 0,1.5238 0.41748,2.651 0.41748,1.12719 1.21069,1.75341 0.81409,0.60535 1.94128,0.60535 z m 23.94245,6.05345 q -4.38353,0 -6.38743,-1.58642 -2.0039,-1.6073 -2.0039,-5.2185 v -24.2973 h 8.34959 v 23.50409 q 0,0.70972 0.3966,1.08545 0.39661,0.37573 1.14807,0.37573 0.22961,0 0.45923,0 0.25049,0 0.45923,0 v 6.13695 q -0.60535,0 -1.2107,0 -0.60534,0 -1.21069,0 z"
       id="text2"
       style="font-size:42.7499px;line-height:1.25;font-family:'GNOME UI Variable';-inkscape-font-specification:'GNOME UI Variable, @opsz=32.0,wght=900';font-variation-settings:'opsz' 32, 'wght' 900;letter-spacing:0px;word-spacing:0px;fill:#241f31;stroke-width:4.4317;stroke-linecap:round;stroke-linejoin:round;stroke-miterlimit:10;paint-order:stroke fill markers"
       aria-label="Tsparql" />
    <circle
       style="font-variation-settings:normal;opacity:1;vector-effect:none;fill:#3584e4;fill-opacity:1;stroke:none;stroke-width:2.21154;stroke-linecap:butt;stroke-linejoin:miter;stroke-miterlimit:4;stroke-dasharray:none;stroke-dashoffset:0;stroke-opacity:1;-inkscape-stroke:none;stop-color:#000000;stop-opacity:1"
       id="path574"
       cx="216.75092"
       cy="209.36894"
       r="28.750042" />
    <g
       id="use49256"
       transform="matrix(-2.0732478,0,0,2.0732478,233.33748,192.79193)"
       style="fill:#ffffff;stroke-width:2.99996">
      <svg
         height="16"
         viewBox="0 0 16 16"
         width="16"
         version="1.1"
         id="svg49335"
         style="fill:#ffffff;stroke-width:2.99996">
        <g
           fill="#241f31"
           id="g49333"
           style="fill:#ffffff;stroke-width:2.99996">
          <path
             id="path49329"
             style="fill:#ffffff;fill-opacity:1;stroke:none;stroke-width:8.53362"
             d="M 6.9175507,0 C 3.1089605,0 3.6126411e-7,3.1089602 3.6126412e-7,6.9175504 3.6126412e-7,10.72614 3.1089605,13.836637 6.9175507,13.836637 c 1.5217036,0 2.9322429,-0.498728 4.0777303,-1.337742 l 3.168496,3.168496 c 1.019531,0.996092 2.515466,-0.531261 1.495935,-1.53126 L 12.508111,10.984529 C 13.343919,9.8413889 13.839709,8.4353055 13.839709,6.9175504 13.839709,3.1089602 10.72614,0 6.9175507,0 Z m 0,2.1287133 c 2.6601534,0 4.7934443,2.1325897 4.7934443,4.7888371 0,2.6601533 -2.1332909,4.7888366 -4.7934443,4.7888366 -2.6562473,0 -4.788837,-2.1286833 -4.788837,-4.7888366 0,-2.6562474 2.1325897,-4.7888371 4.788837,-4.7888371 z" />
        </g>
      </svg>
    </g>
  </g>
</svg>
